…
- date has year, month, and day. Need to pivot wider and save into 3 new
  columns

``` r
ny_noaa |> 
  mutate(year = format(date, "%Y"),
         month = format(date, "%m"),
         day = format(date, "%d"))|> 
  relocate(id, date, year, month,day)
```

    ## # A tibble: 2,595,176 × 10
    ##    id          date       year  month day    prcp  snow  snwd tmax  tmin 
    ##    <chr>       <date>     <chr> <chr> <chr> <int> <int> <int> <chr> <chr>
    ##  1 US1NYAB0001 2007-11-01 2007  11    01       NA    NA    NA <NA>  <NA> 
    ##  2 US1NYAB0001 2007-11-02 2007  11    02       NA    NA    NA <NA>  <NA> 
    ##  3 US1NYAB0001 2007-11-03 2007  11    03       NA    NA    NA <NA>  <NA> 
    ##  4 US1NYAB0001 2007-11-04 2007  11    04       NA    NA    NA <NA>  <NA> 
    ##  5 US1NYAB0001 2007-11-05 2007  11    05       NA    NA    NA <NA>  <NA> 
    ##  6 US1NYAB0001 2007-11-06 2007  11    06       NA    NA    NA <NA>  <NA> 
    ##  7 US1NYAB0001 2007-11-07 2007  11    07       NA    NA    NA <NA>  <NA> 
    ##  8 US1NYAB0001 2007-11-08 2007  11    08       NA    NA    NA <NA>  <NA> 
    ##  9 US1NYAB0001 2007-11-09 2007  11    09       NA    NA    NA <NA>  <NA> 
    ## 10 US1NYAB0001 2007-11-10 2007  11    10       NA    NA    NA <NA>  <NA> 
    ## # ℹ 2,595,166 more rows
…
